…
``` r
# generate the Monte Carlo simulation
N <- 25
g <- 1000000
sim_data <- tibble(group = rep(1:g, each = N), x = rnorm(N * g), y = rnorm(N * g))

# calculate correlation between X,Y for each group
res <- sim_data %>% 
  group_by(group) %>% 
  summarize(r = cor(x, y)) %>% 
  arrange(desc(r))
res
```

    ## # A tibble: 1,000,000 x 2
    ##     group     r
    ##     <int> <dbl>
    ##  1 840003 0.794
    ##  2 767028 0.791
    ##  3 971856 0.776
    ##  4 212248 0.768
    ##  5  60200 0.761
    ##  6  27045 0.756
    ##  7 114409 0.756
    ##  8 755537 0.754
    ##  9 422986 0.753
    ## 10 789165 0.747
    ## # … with 999,990 more rows
…
