…
#### `gather`

We will tell gather the column names we want to assign to the columns
containing the current column names and observations, respectively. In
this case a good choice for these two arguments would be year and
fertility.

``` r
new_tidy_data <- wide_data %>% gather(year, fertility, '1960':'2015')
new_tidy_data
```

    ## # A tibble: 112 x 3
    ##    country     year  fertility
    ##    <chr>       <chr>     <dbl>
    ##  1 Germany     1960       2.41
    ##  2 South Korea 1960       6.16
    ##  3 Germany     1961       2.44
    ##  4 South Korea 1961       5.99
    ##  5 Germany     1962       2.47
    ##  6 South Korea 1962       5.79
    ##  7 Germany     1963       2.49
    ##  8 South Korea 1963       5.57
    ##  9 Germany     1964       2.49
    ## 10 South Korea 1964       5.36
    ## # … with 102 more rows
…
We can start the data wrangling with the gather function, but we should
no longer use the column name year for the new column since it also
contains the variable type. We will call it key, the default, for now:

``` r
dat <- raw_dat %>% gather(key,value,-country)
dat
```

    ## # A tibble: 224 x 3
    ##    country     key                  value
    ##    <chr>       <chr>                <dbl>
    ##  1 Germany     1960_fertility        2.41
    ##  2 South Korea 1960_fertility        6.16
    ##  3 Germany     1960_life_expectancy 69.3 
    ##  4 South Korea 1960_life_expectancy 53.0 
    ##  5 Germany     1961_fertility        2.44
    ##  6 South Korea 1961_fertility        5.99
    ##  7 Germany     1961_life_expectancy 69.8 
    ##  8 South Korea 1961_life_expectancy 53.8 
    ##  9 Germany     1962_fertility        2.47
    ## 10 South Korea 1962_fertility        5.79
    ## # … with 214 more rows
…
    ## [1] "1960_fertility"       "1960_fertility"       "1960_life_expectancy"

The `separate` function takes three arguments: the name of the column to
be separated, the names to be used for the new columns, and the
character that separates the
    variables.

``` r
dat %>% separate(key,c("year","variable_name"),"_")
```

    ## Warning: Expected 2 pieces. Additional pieces discarded in 112 rows [3, 4, 7, 8,
    ## 11, 12, 15, 16, 19, 20, 23, 24, 27, 28, 31, 32, 35, 36, 39, 40, ...].

    ## # A tibble: 224 x 4
    ##    country     year  variable_name value
    ##    <chr>       <chr> <chr>         <dbl>
    ##  1 Germany     1960  fertility      2.41
    ##  2 South Korea 1960  fertility      6.16
    ##  3 Germany     1960  life          69.3 
    ##  4 South Korea 1960  life          53.0 
    ##  5 Germany     1961  fertility      2.44
    ##  6 South Korea 1961  fertility      5.99
    ##  7 Germany     1961  life          69.8 
    ##  8 South Korea 1961  life          53.8 
    ##  9 Germany     1962  fertility      2.47
    ## 10 South Korea 1962  fertility      5.79
    ## # … with 214 more rows

We could add a third column to catch this and let the separate function
know which column to fill in with missing values, NA, when there is no
third value. Here we tell it to fill the column on the right:

``` r
var_names <- (c("year","first_variable_name","second_variable_name"))

dat %>% separate(key,var_names,fill="right")
```

    ## # A tibble: 224 x 5
    ##    country     year  first_variable_name second_variable_name value
    ##    <chr>       <chr> <chr>               <chr>                <dbl>
    ##  1 Germany     1960  fertility           <NA>                  2.41
    ##  2 South Korea 1960  fertility           <NA>                  6.16
    ##  3 Germany     1960  life                expectancy           69.3 
    ##  4 South Korea 1960  life                expectancy           53.0 
    ##  5 Germany     1961  fertility           <NA>                  2.44
    ##  6 South Korea 1961  fertility           <NA>                  5.99
    ##  7 Germany     1961  life                expectancy           69.8 
    ##  8 South Korea 1961  life                expectancy           53.8 
    ##  9 Germany     1962  fertility           <NA>                  2.47
    ## 10 South Korea 1962  fertility           <NA>                  5.79
    ## # … with 214 more rows

Or we can use the `extra="merge"`
argument

``` r
new_dat <- dat %>% separate(key, c("year", "variable_name"),"_", extra = "merge")
new_dat
```

    ## # A tibble: 224 x 4
    ##    country     year  variable_name   value
    ##    <chr>       <chr> <chr>           <dbl>
    ##  1 Germany     1960  fertility        2.41
    ##  2 South Korea 1960  fertility        6.16
    ##  3 Germany     1960  life_expectancy 69.3 
    ##  4 South Korea 1960  life_expectancy 53.0 
    ##  5 Germany     1961  fertility        2.44
    ##  6 South Korea 1961  fertility        5.99
    ##  7 Germany     1961  life_expectancy 69.8 
    ##  8 South Korea 1961  life_expectancy 53.8 
    ##  9 Germany     1962  fertility        2.47
    ## 10 South Korea 1962  fertility        5.79
    ## # … with 214 more rows

Now we need to create a column for each variable, we can use `spread` or
`pivot_wider`

``` r
# with pivot_wider, new columns as names_from=..., and the values_from=...

new_dat %>% pivot_wider(names_from=variable_name, values_from=value)
```

    ## # A tibble: 112 x 4
    ##    country     year  fertility life_expectancy
    ##    <chr>       <chr>     <dbl>           <dbl>
    ##  1 Germany     1960       2.41            69.3
    ##  2 South Korea 1960       6.16            53.0
    ##  3 Germany     1961       2.44            69.8
    ##  4 South Korea 1961       5.99            53.8
    ##  5 Germany     1962       2.47            70.0
    ##  6 South Korea 1962       5.79            54.5
    ##  7 Germany     1963       2.49            70.1
    ##  8 South Korea 1963       5.57            55.3
    ##  9 Germany     1964       2.49            70.7
    ## 10 South Korea 1964       5.36            56.0
    ## # … with 102 more rows

``` r
new_dat %>% spread(variable_name,value)
```

    ## # A tibble: 112 x 4
    ##    country year  fertility life_expectancy
    ##    <chr>   <chr>     <dbl>           <dbl>
    ##  1 Germany 1960       2.41            69.3
    ##  2 Germany 1961       2.44            69.8
    ##  3 Germany 1962       2.47            70.0
    ##  4 Germany 1963       2.49            70.1
    ##  5 Germany 1964       2.49            70.7
    ##  6 Germany 1965       2.48            70.6
    ##  7 Germany 1966       2.44            70.8
    ##  8 Germany 1967       2.37            71.0
    ##  9 Germany 1968       2.28            70.6
    ## 10 Germany 1969       2.17            70.5
    ## # … with 102 more rows

 

#### `unite`

Suppose that we did not know about extra and used this command to
separate:

``` r
dat %>% 
  separate(key, var_names, fill = "right")
```

    ## # A tibble: 224 x 5
    ##    country     year  first_variable_name second_variable_name value
    ##    <chr>       <chr> <chr>               <chr>                <dbl>
    ##  1 Germany     1960  fertility           <NA>                  2.41
    ##  2 South Korea 1960  fertility           <NA>                  6.16
    ##  3 Germany     1960  life                expectancy           69.3 
    ##  4 South Korea 1960  life                expectancy           53.0 
    ##  5 Germany     1961  fertility           <NA>                  2.44
    ##  6 South Korea 1961  fertility           <NA>                  5.99
    ##  7 Germany     1961  life                expectancy           69.8 
    ##  8 South Korea 1961  life                expectancy           53.8 
    ##  9 Germany     1962  fertility           <NA>                  2.47
    ## 10 South Korea 1962  fertility           <NA>                  5.79
    ## # … with 214 more rows

We can achieve the same final result by uniting the second and third
columns, then spreading the columns and renaming fertility\_NA to
fertility:

``` r
dat %>% 
  separate(key, var_names, fill = "right") %>%
  unite(variable_name,first_variable_name,second_variable_name) %>%
  spread(variable_name,value) %>%
  rename(fertility=fertility_NA)
```

    ## # A tibble: 112 x 4
    ##    country year  fertility life_expectancy
    ##    <chr>   <chr>     <dbl>           <dbl>
    ##  1 Germany 1960       2.41            69.3
    ##  2 Germany 1961       2.44            69.8
    ##  3 Germany 1962       2.47            70.0
    ##  4 Germany 1963       2.49            70.1
    ##  5 Germany 1964       2.49            70.7
    ##  6 Germany 1965       2.48            70.6
    ##  7 Germany 1966       2.44            70.8
    ##  8 Germany 1967       2.37            71.0
    ##  9 Germany 1968       2.28            70.6
    ## 10 Germany 1969       2.17            70.5
    ## # … with 102 more rows
…
Also Inspect the Master data frame, which has demographic information
for all players:

``` r
Master %>% as_tibble()
```

    ## # A tibble: 19,617 x 26
    ##    playerID birthYear birthMonth birthDay birthCountry birthState birthCity
    ##    <chr>        <int>      <int>    <int> <chr>        <chr>      <chr>    
    ##  1 aardsda…      1981         12       27 USA          CO         Denver   
    ##  2 aaronha…      1934          2        5 USA          AL         Mobile   
    ##  3 aaronto…      1939          8        5 USA          AL         Mobile   
    ##  4 aasedo01      1954          9        8 USA          CA         Orange   
    ##  5 abadan01      1972          8       25 USA          FL         Palm Bea…
    ##  6 abadfe01      1985         12       17 D.R.         La Romana  La Romana
    ##  7 abadijo…      1850         11        4 USA          PA         Philadel…
    ##  8 abbated…      1877          4       15 USA          PA         Latrobe  
    ##  9 abbeybe…      1869         11       11 USA          VT         Essex    
    ## 10 abbeych…      1866         10       14 USA          NE         Falls Ci…
    ## # … with 19,607 more rows, and 19 more variables: deathYear <int>,
    ## #   deathMonth <int>, deathDay <int>, deathCountry <chr>, deathState <chr>,
    ## #   deathCity <chr>, nameFirst <chr>, nameLast <chr>, nameGiven <chr>,
    ## #   weight <int>, height <int>, bats <fct>, throws <fct>, debut <chr>,
    ## #   finalGame <chr>, retroID <chr>, bbrefID <chr>, deathDate <date>,
    ## #   birthDate <date>
…
``` r
citi_bike$executionTime
```

    ## [1] "2020-05-05 09:22:38 AM"

and the second is a data table:

``` r
citi_bike$stationBeanList %>% as_tibble() 
```

    ## # A tibble: 938 x 18
    ##       id stationName availableDocks totalDocks latitude longitude statusValue
    ##    <int> <chr>                <int>      <int>    <dbl>     <dbl> <chr>      
    ##  1    72 W 52 St & …             16         55     40.8     -74.0 In Service 
    ##  2    79 Franklin S…             23         33     40.7     -74.0 In Service 
    ##  3    82 St James P…              0         27     40.7     -74.0 In Service 
    ##  4    83 Atlantic A…              3         62     40.7     -74.0 In Service 
    ##  5   116 W 17 St & …             31         50     40.7     -74.0 In Service 
    ##  6   119 Park Ave &…              9         19     40.7     -74.0 In Service 
    ##  7   120 Lexington …             12         19     40.7     -74.0 In Service 
    ##  8   127 Barrow St …             16         31     40.7     -74.0 In Service 
    ##  9   128 MacDougal …              8         30     40.7     -74.0 In Service 
    ## 10   143 Clinton St…              4         24     40.7     -74.0 In Service 
    ## # … with 928 more rows, and 11 more variables: statusKey <int>,
    ## #   availableBikes <int>, stAddress1 <chr>, stAddress2 <chr>, city <chr>,
    ## #   postalCode <chr>, location <chr>, altitude <chr>, testStation <lgl>,
    ## #   lastCommunicationTime <chr>, landMark <chr>
…
``` r
android_iphone_or <- tweet_words %>%
  count(word, source) %>%
  spread(source, n, fill = 0) %>%
  mutate(or = (Android + 0.5) / (sum(Android) - Android + 0.5) / 
           ( (iPhone + 0.5) / (sum(iPhone) - iPhone + 0.5)))
```

Here are the highest odds ratios for Android

``` r
android_iphone_or %>% arrange(desc(or))
```

    ## # A tibble: 5,914 x 4
    ##    word      Android iPhone    or
    ##    <chr>       <dbl>  <dbl> <dbl>
    ##  1 poor           13      0  23.1
    ##  2 poorly         12      0  21.4
    ##  3 turnberry      11      0  19.7
    ##  4 @cbsnews       10      0  18.0
    ##  5 angry          10      0  18.0
    ##  6 bosses         10      0  18.0
    ##  7 write          10      0  18.0
    ##  8 brexit          9      0  16.3
    ##  9 defend          9      0  16.3
    ## 10 funny           9      0  16.3
    ## # … with 5,904 more rows

and the top for iPhone:

``` r
android_iphone_or %>% arrange(or)
```

    ## # A tibble: 5,914 x 4
    ##    word                   Android iPhone      or
    ##    <chr>                    <dbl>  <dbl>   <dbl>
    ##  1 #makeamericagreatagain       0    294 0.00142
    ##  2 #americafirst                0     71 0.00595
    ##  3 #draintheswamp               0     63 0.00670
    ##  4 #trump2016                   3    411 0.00706
    ##  5 #votetrump                   0     56 0.00753
    ##  6 join                         1    157 0.00805
    ##  7 #imwithyou                   0     51 0.00827
    ##  8 #crookedhillary              0     30 0.0140 
    ##  9 #fitn                        0     30 0.0140 
    ## 10 #gopdebate                   0     30 0.0140 
    ## # … with 5,904 more rows

Given that several of these words are overall low frequency words, we
can impose a filter based on the total frequency like this:

``` r
android_iphone_or %>% filter(Android+iPhone > 100) %>%
  arrange(desc(or))
```

    ## # A tibble: 30 x 4
    ##    word        Android iPhone    or
    ##    <chr>         <dbl>  <dbl> <dbl>
    ##  1 @cnn             90     17  4.44
    ##  2 bad             104     26  3.39
    ##  3 crooked         156     49  2.72
    ##  4 interviewed      76     25  2.57
    ##  5 media            76     25  2.57
    ##  6 ted              84     28  2.54
    ##  7 win              74     28  2.24
    ##  8 hillary         289    116  2.14
    ##  9 debate           79     32  2.10
    ## 10 cruz            113     46  2.09
    ## # … with 20 more rows

``` r
android_iphone_or %>% filter(Android+iPhone > 100) %>%
  arrange(or)
```

    ## # A tibble: 30 x 4
    ##    word                   Android iPhone      or
    ##    <chr>                    <dbl>  <dbl>   <dbl>
    ##  1 #makeamericagreatagain       0    294 0.00142
    ##  2 #trump2016                   3    411 0.00706
    ##  3 join                         1    157 0.00805
    ##  4 tomorrow                    24     99 0.209  
    ##  5 vote                        46     67 0.588  
    ##  6 america                    114    140 0.695  
    ##  7 tonight                     70     84 0.712  
    ##  8 iowa                        61     65 0.802  
    ##  9 trump                      104     91 0.976  
    ## 10 poll                       116    101 0.981  
    ## # … with 20 more rows

 

#### Sentiment analysis

The bing lexicon divides words into positive and negative sentiments. We
can see this using the tidytext function get\_sentiments:

``` r
get_sentiments("bing")
```

    ## # A tibble: 6,786 x 2
    ##    word        sentiment
    ##    <chr>       <chr>    
    ##  1 2-faces     negative 
    ##  2 abnormal    negative 
    ##  3 abolish     negative 
    ##  4 abominable  negative 
    ##  5 abominably  negative 
    ##  6 abominate   negative 
    ##  7 abomination negative 
    ##  8 abort       negative 
    ##  9 aborted     negative 
    ## 10 aborts      negative 
    ## # … with 6,776 more rows
…
    ## 
    ##  1995  1996  1997  1998  1999  2000  2001  2002  2003  2004  2005  2006  2007 
    ##     3  6239  3294  1825  5901 13869  4658  3938  4462  4658  7161  7493  1548 
    ##  2008  2009  2010  2011  2012  2013  2014  2015  2016 
    ##  3676  3434  2518  4450  3849  1969  2224  6610  6225

``` r
movielens %>% mutate(year=year(as_datetime(timestamp))) %>%
  select(year) %>% count(year) %>% arrange(desc(n))
```

    ## # A tibble: 22 x 2
    ##     year     n
    ##    <dbl> <int>
    ##  1  2000 13869
    ##  2  2006  7493
    ##  3  2005  7161
    ##  4  2015  6610
    ##  5  1996  6239
    ##  6  2016  6225
    ##  7  1999  5901
    ##  8  2001  4658
    ##  9  2004  4658
    ## 10  2003  4462
    ## # … with 12 more rows
…
    ## [1] 122

13. Finish it up by changing tab to a tidy format, starting from this
    code outline:

<!-- end list -->

``` r
tab <- tab %>% gather(year, deaths, -day)
tab
```

    ## # A tibble: 120 x 3
    ##      day year  deaths
    ##    <dbl> <chr>  <dbl>
    ##  1     1 2015      75
    ##  2     2 2015      77
    ##  3     3 2015      67
    ##  4     4 2015      71
    ##  5     5 2015      62
    ##  6     6 2015      77
    ##  7     7 2015      85
    ##  8     8 2015      84
    ##  9     9 2015      79
    ## 10    10 2015      66
    ## # … with 110 more rows

``` r
tab %>% mutate(deaths = as.numeric(deaths))
```

    ## # A tibble: 120 x 3
    ##      day year  deaths
    ##    <dbl> <chr>  <dbl>
    ##  1     1 2015      75
    ##  2     2 2015      77
    ##  3     3 2015      67
    ##  4     4 2015      71
    ##  5     5 2015      62
    ##  6     6 2015      77
    ##  7     7 2015      85
    ##  8     8 2015      84
    ##  9     9 2015      79
    ## 10    10 2015      66
    ## # … with 110 more rows
…
