…
# The closest (lowest d) are:

results %>% arrange(abs(avg))
```

    ## # A tibble: 47 x 4
    ##    state               avg     sd     n
    ##    <chr>             <dbl>  <dbl> <int>
    ##  1 Florida         0.00356 0.0163     7
    ##  2 North Carolina -0.00730 0.0306     9
    ##  3 Ohio           -0.0104  0.0252     6
    ##  4 Nevada          0.0169  0.0441     7
    ##  5 Iowa           -0.0197  0.0437     3
    ##  6 Michigan        0.0209  0.0203     6
    ##  7 Arizona        -0.0326  0.0270     9
    ##  8 Pennsylvania    0.0353  0.0116     9
    ##  9 New Mexico      0.0389  0.0226     6
    ## 10 Georgia        -0.0448  0.0238     4
    ## # … with 37 more rows

``` r
# we add electoral votes from the 2016 actuals data set

results <- left_join(results, results_us_election_2016, by = "state")

results
```

    ## # A tibble: 47 x 8
    ##    state            avg        sd     n electoral_votes clinton trump others
    ##    <chr>          <dbl>     <dbl> <int>           <int>   <dbl> <dbl>  <dbl>
    ##  1 Alabama     -0.149    0.0253       3               9    34.4  62.1    3.6
    ##  2 Arizona     -0.0326   0.0270       9              11    45.1  48.7    6.2
    ##  3 Arkansas    -0.151    0.000990     2               6    33.7  60.6    5.8
    ##  4 California   0.260    0.0387       5              55    61.7  31.6    6.7
    ##  5 Colorado     0.0452   0.0295       7               9    48.2  43.3    8.6
    ##  6 Connecticut  0.0780   0.0211       3               7    54.6  40.9    4.5
    ##  7 Delaware     0.132    0.0335       2               3    53.4  41.9    4.7
    ##  8 Florida      0.00356  0.0163       7              29    47.8  49      3.2
    ##  9 Georgia     -0.0448   0.0238       4              16    45.9  51      3.1
    ## 10 Hawaii       0.186   NA            1               4    62.2  30      7.7
    ## # … with 37 more rows
…
results <- results %>%
  mutate(sd = ifelse(is.na(sd), median(results$sd, na.rm = TRUE), sd))

mu <- 0
tau <- 0.02
results %>% mutate(sigma = sd/sqrt(n),
                   B = sigma^2/ (sigma^2 + tau^2),
                   posterior_mean = B*mu + (1-B)*avg,
                   posterior_se = sqrt( 1 / (1/sigma^2 + 1/tau^2))) %>%
  arrange(abs(posterior_mean))
```

    ## # A tibble: 47 x 12
    ##    state      avg     sd     n electoral_votes clinton trump others   sigma
    ##    <chr>    <dbl>  <dbl> <int>           <int>   <dbl> <dbl>  <dbl>   <dbl>
    ##  1 Flor…  0.00356 0.0163     7              29    47.8  49      3.2 0.00618
    ##  2 Nort… -0.00730 0.0306     9              15    46.2  49.8    4   0.0102 
    ##  3 Iowa  -0.0197  0.0437     3               6    41.7  51.1    7.1 0.0252 
    ##  4 Ohio  -0.0104  0.0252     6              18    43.5  51.7    4.8 0.0103 
    ##  5 Neva…  0.0169  0.0441     7               6    47.9  45.5    6.6 0.0167 
    ##  6 Mich…  0.0209  0.0203     6              16    47.3  47.5    5.2 0.00827
    ##  7 Ariz… -0.0326  0.0270     9              11    45.1  48.7    6.2 0.00898
    ##  8 New …  0.0389  0.0226     6               5    48.3  40     11.7 0.00921
    ##  9 Geor… -0.0448  0.0238     4              16    45.9  51      3.1 0.0119 
    ## 10 Penn…  0.0353  0.0116     9              20    47.9  48.6    3.6 0.00387
    ## # … with 37 more rows, and 3 more variables: B <dbl>, posterior_mean <dbl>,
    ## #   posterior_se <dbl>
…
